…
## Usage

bluffbench includes two datasets.

`bluff_dataset` holds the samples. Each row has an `id`, an `input`
(list-column with `prompt`, `setup`, and `teardown`), a `target`
describing the correct interpretation, and a `type` (`"mocked"`,
`"intuitive"`, or `"baseline"`):

``` r
bluff_dataset
#> # A tibble: 37 × 4
#>    id                                 input            target              type 
#>    <chr>                              <list>           <chr>               <chr>
#>  1 antibiotics_bacteria_growth        <tibble [1 × 4]> "The antibiotics d… intu…
#>  2 banana_sunlight_negative           <tibble [1 × 4]> "The banana_plants… intu…
#>  3 baseline_bimodal_clusters          <tibble [1 × 4]> "The df dataset wa… base…
#>  4 baseline_categorical_difference    <tibble [1 × 4]> "The df dataset sh… base…
#>  5 baseline_categorical_no_difference <tibble [1 × 4]> "The df dataset sh… base…
#>  6 baseline_category_time_growth      <tibble [1 × 4]> "The df dataset sh… base…
#>  7 baseline_department_values         <tibble [1 × 4]> "The df dataset wa… base…
#>  8 baseline_negative_correlation      <tibble [1 × 4]> "The df dataset wa… base…
#>  9 baseline_no_correlation            <tibble [1 × 4]> "The df dataset sh… base…
#> 10 baseline_positive_correlation      <tibble [1 × 4]> "The df dataset sh… base…
#> # ℹ 27 more rows
```

`bluff_results` holds the scored evaluation, with one row per model,
sample, and epoch:

``` r
bluff_results |>
  select(model, id, epoch, type, score, cost)
#> # A tibble: 4,212 × 6
#>    model                   id                            epoch type  score  cost
#>    <chr>                   <chr>                         <int> <chr> <ord> <dbl>
#>  1 Claude Fable 5 (medium) antibiotics_bacteria_growth       1 intu… I      3.74
#>  2 Claude Fable 5 (medium) antibiotics_bacteria_growth       2 intu… I      3.74
#>  3 Claude Fable 5 (medium) antibiotics_bacteria_growth       3 intu… I      3.74
#>  4 Claude Fable 5 (medium) banana_sunlight_negative          1 intu… C      3.74
#>  5 Claude Fable 5 (medium) banana_sunlight_negative          2 intu… C      3.74
#>  6 Claude Fable 5 (medium) banana_sunlight_negative          3 intu… C      3.74
#>  7 Claude Fable 5 (medium) baseline_bimodal_clusters         1 base… C      3.74
#>  8 Claude Fable 5 (medium) baseline_bimodal_clusters         2 base… C      3.74
#>  9 Claude Fable 5 (medium) baseline_bimodal_clusters         3 base… C      3.74
#> 10 Claude Fable 5 (medium) baseline_categorical_differe…     1 base… C      3.74
#> # ℹ 4,202 more rows
```
…
